%TF.GenerationSoftware,KiCad,Pcbnew,7.0.7*%
%TF.CreationDate,2023-10-05T00:56:54-06:00*%
%TF.ProjectId,secuencial-panelized,73656375-656e-4636-9961-6c2d70616e65,rev?*%
%TF.SameCoordinates,Original*%
%TF.FileFunction,Profile,NP*%
%FSLAX46Y46*%
G04 Gerber Fmt 4.6, Leading zero omitted, Abs format (unit mm)*
G04 Created by KiCad (PCBNEW 7.0.7) date 2023-10-05 00:56:54*
%MOMM*%
%LPD*%
G01*
G04 APERTURE LIST*
%TA.AperFunction,Profile*%
%ADD10C,0.050000*%
%TD*%
G04 APERTURE END LIST*
D10*
X149740000Y-90280000D02*
G75*
G03*
X149740000Y-92280000I0J-1000000D01*
G01*
X156740000Y-69280000D02*
X156740000Y-80280000D01*
X154740000Y-140780000D02*
X106240000Y-140780000D01*
X106240000Y-41780000D02*
X154740000Y-41780000D01*
X145740000Y-92280000D02*
G75*
G03*
X145740000Y-90280000I0J1000000D01*
G01*
X156740000Y-140780000D02*
X156740000Y-134780000D01*
X179740000Y-92280000D02*
G75*
G03*
X179740000Y-90280000I0J1000000D01*
G01*
X154740000Y-115780000D02*
G75*
G03*
X156740000Y-115780000I1000000J0D01*
G01*
X205240000Y-90280000D02*
X205240000Y-41780000D01*
X183740000Y-92280000D02*
X196240000Y-92280000D01*
X166240000Y-92280000D02*
X179740000Y-92280000D01*
X205240000Y-140780000D02*
X156740000Y-140780000D01*
X154740000Y-134780000D02*
X154740000Y-140780000D01*
X205240000Y-41780000D02*
X156740000Y-41780000D01*
X156740000Y-53280000D02*
G75*
G03*
X154740000Y-53280000I-1000000J0D01*
G01*
X166240000Y-90280000D02*
G75*
G03*
X166240000Y-92280000I0J-1000000D01*
G01*
X156740000Y-119780000D02*
G75*
G03*
X154740000Y-119780000I-1000000J0D01*
G01*
X156740000Y-84280000D02*
G75*
G03*
X154740000Y-84280000I-1000000J0D01*
G01*
X162240000Y-92280000D02*
G75*
G03*
X162240000Y-90280000I0J1000000D01*
G01*
X154740000Y-53280000D02*
X154740000Y-65280000D01*
X200240000Y-90280000D02*
X205240000Y-90280000D01*
X154740000Y-84280000D02*
X154740000Y-90280000D01*
X183740000Y-90280000D02*
G75*
G03*
X183740000Y-92280000I0J-1000000D01*
G01*
X200240000Y-92280000D02*
X205240000Y-92280000D01*
X145740000Y-90280000D02*
X133240000Y-90280000D01*
X200240000Y-90280000D02*
G75*
G03*
X200240000Y-92280000I0J-1000000D01*
G01*
X154740000Y-65280000D02*
G75*
G03*
X156740000Y-65280000I1000000J0D01*
G01*
X154740000Y-49280000D02*
G75*
G03*
X156740000Y-49280000I1000000J0D01*
G01*
X183740000Y-90280000D02*
X196240000Y-90280000D01*
X156740000Y-115780000D02*
X156740000Y-103280000D01*
X129240000Y-92280000D02*
G75*
G03*
X129240000Y-90280000I0J1000000D01*
G01*
X156740000Y-53280000D02*
X156740000Y-65280000D01*
X166240000Y-90280000D02*
X179740000Y-90280000D01*
X154740000Y-90280000D02*
X149740000Y-90280000D01*
X149740000Y-92280000D02*
X154740000Y-92280000D01*
X106240000Y-140780000D02*
X106240000Y-92280000D01*
X115740000Y-90280000D02*
G75*
G03*
X115740000Y-92280000I0J-1000000D01*
G01*
X156740000Y-134780000D02*
G75*
G03*
X154740000Y-134780000I-1000000J0D01*
G01*
X154740000Y-99280000D02*
G75*
G03*
X156740000Y-99280000I1000000J0D01*
G01*
X154740000Y-119780000D02*
X154740000Y-130780000D01*
X154740000Y-92280000D02*
X154740000Y-99280000D01*
X106240000Y-90280000D02*
X106240000Y-41780000D01*
X156740000Y-41780000D02*
X156740000Y-49280000D01*
X154740000Y-69280000D02*
X154740000Y-80280000D01*
X111740000Y-90280000D02*
X106240000Y-90280000D01*
X133240000Y-90280000D02*
G75*
G03*
X133240000Y-92280000I0J-1000000D01*
G01*
X133240000Y-92280000D02*
X145740000Y-92280000D01*
X156740000Y-90280000D02*
X162240000Y-90280000D01*
X154740000Y-103280000D02*
X154740000Y-115780000D01*
X156740000Y-103280000D02*
G75*
G03*
X154740000Y-103280000I-1000000J0D01*
G01*
X129240000Y-92280000D02*
X115740000Y-92280000D01*
X156740000Y-84280000D02*
X156740000Y-90280000D01*
X156740000Y-92280000D02*
X156740000Y-99280000D01*
X154740000Y-41780000D02*
X154740000Y-49280000D01*
X156740000Y-130780000D02*
X156740000Y-119780000D01*
X154740000Y-130780000D02*
G75*
G03*
X156740000Y-130780000I1000000J0D01*
G01*
X115740000Y-90280000D02*
X129240000Y-90280000D01*
X196240000Y-92280000D02*
G75*
G03*
X196240000Y-90280000I0J1000000D01*
G01*
X154740000Y-80280000D02*
G75*
G03*
X156740000Y-80280000I1000000J0D01*
G01*
X156740000Y-69280000D02*
G75*
G03*
X154740000Y-69280000I-1000000J0D01*
G01*
X205240000Y-92280000D02*
X205240000Y-140780000D01*
X156740000Y-92280000D02*
X162240000Y-92280000D01*
X106240000Y-92280000D02*
X111740000Y-92280000D01*
X111740000Y-92280000D02*
G75*
G03*
X111740000Y-90280000I0J1000000D01*
G01*
M02*
