(kicad_symbol_lib (version 20220914) (generator kicad_symbol_editor)
  (symbol "R_Variable_sw" (pin_numbers hide) (pin_names (offset 0)) (in_bom yes) (on_board yes)
    (property "Reference" "RV" (at -7.62 -6.35 0)
      (effects (font (size 1.27 1.27)) (justify left))
    )
    (property "Value" "R_Variable" (at -11.43 -3.81 0)
      (effects (font (size 1.27 1.27)) (justify left))
    )
    (property "Footprint" "" (at 3.048 0 90)
      (effects (font (size 1.27 1.27)) hide)
    )
    (property "Datasheet" "~" (at 1.27 0 0)
      (effects (font (size 1.27 1.27)) hide)
    )
    (property "ki_keywords" "R res resistor variable potentiometer rheostat" (at 0 0 0)
      (effects (font (size 1.27 1.27)) hide)
    )
    (property "ki_description" "Variable resistor" (at 0 0 0)
      (effects (font (size 1.27 1.27)) hide)
    )
    (property "ki_fp_filters" "R_*" (at 0 0 0)
      (effects (font (size 1.27 1.27)) hide)
    )
    (symbol "R_Variable_sw_0_0"
      (polyline
        (pts
          (xy 9.271 -2.159)
          (xy 7.747 0.889)
        )
        (stroke (width 0) (type default))
        (fill (type none))
      )
      (circle (center 9.525 -2.667) (radius 0.508)
        (stroke (width 0) (type default))
        (fill (type none))
      )
      (circle (center 9.525 1.397) (radius 0.508)
        (stroke (width 0) (type default))
        (fill (type none))
      )
    )
    (symbol "R_Variable_sw_0_1"
      (polyline
        (pts
          (xy -1.27 0)
          (xy -0.254 0)
        )
        (stroke (width 0) (type default))
        (fill (type none))
      )
      (polyline
        (pts
          (xy 0.127 0)
          (xy -1.016 0.508)
          (xy -1.016 -0.508)
          (xy 0.127 0)
        )
        (stroke (width 0) (type default))
        (fill (type outline))
      )
      (rectangle (start 0.254 -2.54) (end 2.286 2.54)
        (stroke (width 0.254) (type default))
        (fill (type none))
      )
    )
    (symbol "R_Variable_sw_1_1"
      (pin passive line (at 1.27 3.81 270) (length 1.27)
        (name "1" (effects (font (size 1.27 1.27))))
        (number "1" (effects (font (size 1.27 1.27))))
      )
      (pin passive line (at -2.54 0 0) (length 1.27)
        (name "2" (effects (font (size 1.27 1.27))))
        (number "2" (effects (font (size 1.27 1.27))))
      )
      (pin passive line (at 1.27 -3.81 90) (length 1.27)
        (name "3" (effects (font (size 1.27 1.27))))
        (number "3" (effects (font (size 1.27 1.27))))
      )
      (pin passive line (at 9.525 -5.715 90) (length 2.54)
        (name "4" (effects (font (size 1.27 1.27))))
        (number "4" (effects (font (size 1.27 1.27))))
      )
      (pin passive line (at 9.525 4.445 270) (length 2.54)
        (name "5" (effects (font (size 1.27 1.27))))
        (number "5" (effects (font (size 1.27 1.27))))
      )
    )
  )
)
